{
    "KPlugin": {
        "Description": "Activities help you to focus on a specific task",
        "Description[ar]": "تساعدك الأنشطة على التركيز على مهام محددة",
        "Description[az]": "İş otağı sizə, diqqətinizi konkret tapşırığa yönəltməyə kömək edir",
        "Description[bg]": "Дейности ви помагат за да се фокусирате върху специфична задача",
        "Description[ca@valencia]": "Les activitats ajuden a centrar-vos en una tasca específica",
        "Description[ca]": "Les activitats ajuden a centrar-vos en una tasca específica",
        "Description[cs]": "Aktivity pomáhají soustředit se na konkrétní úlohu",
        "Description[da]": "Aktiviteter hjælper dig med at fokusere på en specifik opgave",
        "Description[de]": "Aktivitäten helfen Ihnen dabei, sich auf eine Aufgabe zu konzentrieren",
        "Description[en_GB]": "Activities help you to focus on a specific task",
        "Description[es]": "Las actividades le ayudan a centrarse en una determinada tarea",
        "Description[eu]": "Jarduerek zeregin jakin batean arreta jartzen laguntzen dute",
        "Description[fi]": "Aktiviteetit auttavat sinua keskittymään yhteen asiaan",
        "Description[fr]": "Les activités vous aident à vous concentrer sur une tâche spécifique.",
        "Description[hu]": "Az aktivitások segítenek egy-egy feladatra koncentrálni",
        "Description[ia]": "Activitates adjuta te a focalisar sur un specific carga",
        "Description[id]": "Activities membantu Anda untuk fokus pada tugas yang khusus",
        "Description[it]": "Le attività ti aiutano a concentrarti su un compito specifico",
        "Description[ja]": "アクティビティは一つの作業に集中する手助けをします",
        "Description[ka]": "აქტივობები საშუალებას მოგცემენ თქვენს ამოცანაზე ფოკუსირდეთ",
        "Description[ko]": "활동을 사용하면 개별 작업에 집중할 수 있습니다",
        "Description[lt]": "Veiklos padeda jums susitelkti ties tam tikra užduotimi",
        "Description[nl]": "Activiteiten helpen u om u te focussen op een specifieke taak",
        "Description[nn]": "Aktivitetar hjelper deg å fokusera på oppgåver",
        "Description[pa]": "ਖਾਸ ਕੰਮ ਉੱਤੇ ਧਿਆਨ ਲਗਾਉਣ ਲਈ ਮਦਦ ਵਾਸਤੇ ਸਰਗਰਮੀਆਂ",
        "Description[pl]": "Aktywności pomagają ci skupić się na danym zadaniu",
        "Description[pt]": "As actividades ajudam-no a focar-se numa tarefa específica",
        "Description[pt_BR]": "Ajuda-o a se concentrar em uma tarefa específica",
        "Description[ro]": "Activitățile vă ajută să vă concentrați asupra unei anumite sarcini",
        "Description[ru]": "Комнаты помогают сконцентрироваться на конкретной задаче",
        "Description[sk]": "Aktivity vám pomôžu sústrediť sa na určitú úlohu",
        "Description[sl]": "Dejavnosti vam pomagajo, da se osredotočite na določeno opravilo",
        "Description[sv]": "Aktiviteter hjälper dig att fokusera på en viss uppgift",
        "Description[ta]": "நீங்கள் ஒரு குறிப்பிட்ட வேலையில் கவனம் செலுத்த செயல்பாடுகள் உதவும்",
        "Description[tr]": "Etkinlikler, belirli bir göreve odaklanmanıza yardımcı olur",
        "Description[uk]": "Простори дій допоможуть вам зосередитися на певному завданні",
        "Description[vi]": "Chức năng \"Hoạt động\" giúp bạn tập trung vào một tác vụ nhất định",
        "Description[x-test]": "xxActivities help you to focus on a specific taskxx",
        "Description[zh_CN]": "活动部件可以帮助您专注于处理某个任务",
        "Icon": "preferences-desktop-activities",
        "Name": "Activities",
        "Name[ar]": "الأنشطة",
        "Name[ast]": "Actividaes",
        "Name[az]": "İş otaqları",
        "Name[bg]": "Дейности",
        "Name[bs]": "Motor aktivnosti",
        "Name[ca@valencia]": "Activitats",
        "Name[ca]": "Activitats",
        "Name[cs]": "Aktivity",
        "Name[da]": "Aktiviteter",
        "Name[de]": "Aktivitäten",
        "Name[el]": "Δραστηριότητες",
        "Name[en_GB]": "Activities",
        "Name[es]": "Actividades",
        "Name[et]": "Tegevused",
        "Name[eu]": "Jarduerak",
        "Name[fa]": "فعالیتها",
        "Name[fi]": "Aktiviteetit",
        "Name[fr]": "Activités",
        "Name[ga]": "Gníomhaíochtaí",
        "Name[gl]": "Actividades",
        "Name[he]": "פעילויות",
        "Name[hr]": "Aktivnosti",
        "Name[hu]": "Aktivitások",
        "Name[ia]": "Activitates",
        "Name[id]": "Activities",
        "Name[is]": "Virknistjóri",
        "Name[it]": "Attività",
        "Name[ja]": "アクティビティ",
        "Name[ka]": "ქმედებები",
        "Name[kk]": "Белсенділіктер",
        "Name[km]": "សកម្មភាព",
        "Name[ko]": "활동",
        "Name[lt]": "Veiklos",
        "Name[lv]": "Aktivitātes",
        "Name[ml]": "പ്രവര്‍ത്തികള്‍",
        "Name[mr]": "कार्यपध्दती",
        "Name[nb]": "Aktiviteter",
        "Name[nds]": "Aktiviteten",
        "Name[nl]": "Activiteiten",
        "Name[nn]": "Aktivitetar",
        "Name[pa]": "ਸਰਗਰਮੀਆਂ",
        "Name[pl]": "Aktywności",
        "Name[pt]": "Actividades",
        "Name[pt_BR]": "Atividades",
        "Name[ro]": "Activități",
        "Name[ru]": "Комнаты",
        "Name[sk]": "Aktivity",
        "Name[sl]": "Dejavnosti",
        "Name[sr@ijekavian]": "активности",
        "Name[sr@ijekavianlatin]": "aktivnosti",
        "Name[sr@latin]": "aktivnosti",
        "Name[sr]": "активности",
        "Name[sv]": "Aktiviteter",
        "Name[ta]": "செயல்பாடுகள்",
        "Name[tg]": "Фаъолиятҳо",
        "Name[tr]": "Etkinlikler",
        "Name[ug]": "پائالىيەتلەر",
        "Name[uk]": "Простори дій",
        "Name[vi]": "Hoạt động",
        "Name[wa]": "Activités",
        "Name[x-test]": "xxActivitiesxx",
        "Name[zh_CN]": "活动",
        "Name[zh_TW]": "活動"
    },
    "X-DocPath": "kcontrol/kcmactivities/index.html",
    "X-KDE-FactoryName": "kcm_activities",
    "X-KDE-Keywords": "activities,activity,workspaces,alternate desktops,activity privacy,virtual desktops",
    "X-KDE-Keywords[az]": "activities,activity,workspaces,alternate desktops,activity privacy,virtual desktops,tədbirlər,fəaliyyətlər,fəaliyyət,əməl,iş sahəsi,digər iş masaları,məxfiliyin baçladılması,virtual iş masaları",
    "X-KDE-Keywords[ca]": "activitats,activitat,espais de treball,workspaces,escriptoris alternatius,privadesa d'activitat,escriptoris virtuals",
    "X-KDE-Keywords[en_GB]": "activities,activity,workspaces,alternate desktops,activity privacy,virtual desktops",
    "X-KDE-Keywords[es]": "actividades,actividad,espacios de trabajo,escritorios alternativos,privacidad de actividades,escritorios virtuales",
    "X-KDE-Keywords[eu]": "jarduerak,jarduera,languneak,ordezko mahaigainak,jardueren pribatutasuna,alegiazko mahaigainak",
    "X-KDE-Keywords[fi]": "aktiviteetit,aktiviteetti,työtila,työtilat,aktiviteetin tietoturva,virtuaalityöpöytä,virtuaalityöpöydät",
    "X-KDE-Keywords[fr]": "activités, activité, espaces de travail, bureaux alternatifs, confidentialité des activités, bureaux virtuels",
    "X-KDE-Keywords[hu]": "tevékenységek,tevékenység,munkaterületek,asztalok váltása,adatvédelmi tevékenység,virtuális asztalo",
    "X-KDE-Keywords[ia]": "activitates,activitate,spatio de travalio, scriptorios alternate, confidentialitate de activitate, scriptorios virtual",
    "X-KDE-Keywords[it]": "attività,attività,spazi di lavoro,desktop alternativi,riservatezza attività,desktop virtuali",
    "X-KDE-Keywords[ko]": "activities,activity,workspaces,alternate desktops,activity privacy,virtual desktops,활동,작업 공간,대체 바탕 화면,활동 보안,가상 데스크톱,가상 바탕 화면",
    "X-KDE-Keywords[lt]": "veiklos,veikla,darbo sritys,darbalaukiai,darbastaliai,alternatyvūs darbalaukiai,alternatyvus darbalaukiai,veiklų privatumas,veiklu privatumas,virtualūs darbalaukiai,virtualus darbalaukiai,virtualūs darbastaliai,virtualus darbastaliai",
    "X-KDE-Keywords[nl]": "activiteiten,activiteit,werkruimten,alternatieve bureaubladen,privacy van activiteit,virtuele bureaubladen",
    "X-KDE-Keywords[nn]": "aktivitetar,aktivitet,arbeidsflater,arbeidsområde,alternative skrivebord,aktivitet personvern,virtuelle skrivebord",
    "X-KDE-Keywords[pl]": "aktywności,aktywność,przestrzenie pracy,zamienne pulpity,prywatność aktywności,pulpity wirtualne",
    "X-KDE-Keywords[pt]": "actividades,actividade,áreas de trabalho,ecrãs alternativos,privacidade da actividade,ecrãs virtuais",
    "X-KDE-Keywords[pt_BR]": "atividades,atividade,espaço de trabalho,área de trabalho,desktop,área de trabalho alternativa,privacidade da atividade,áreas de trabalho virtual",
    "X-KDE-Keywords[ru]": "activities,activity,workspaces,alternate desktops,activity privacy,virtual desktops,комнаты,комната,рабочие столы,виртуальные столы",
    "X-KDE-Keywords[sk]": "aktivity,aktivita,pracovné priestory,alternatívne pracovné plochy,súkromie aktivít,virtuálne pracovné plochy",
    "X-KDE-Keywords[sl]": "dejavnosti,dejavnost,delovni prostori,alternativna namizja,zasebnost dejavnosti,navidezna namizja",
    "X-KDE-Keywords[sv]": "aktiviteter,aktivitet,arbetsrymd,alternativa skrivbord,privat aktivitet,virtuella skrivbord",
    "X-KDE-Keywords[tr]": "etkinlikler,etkinlik,çalışma alanları,alternatif masaüstleri,etkinlik gizliliği,sanal masaüstleri",
    "X-KDE-Keywords[uk]": "activities,activity,workspaces,alternate desktops,activity privacy,virtual desktops,простори дій,простір дій,активності,активність,робочі простори,альтернативні стільниці,конфіденційність просторів дій,віртуальні стільниці",
    "X-KDE-Keywords[vi]": "activities,activity,workspaces,alternate desktops,activity privacy,virtual desktops,hoạt động,không gian làm việc,bàn làm việc khác,tính riêng tư của hoạt động,bàn làm việc ảo",
    "X-KDE-Keywords[x-test]": "xxactivitiesxx,xxactivityxx,xxworkspacesxx,xxalternate desktopsxx,xxactivity privacyxx,xxvirtual desktopsxx",
    "X-KDE-Keywords[zh_CN]": "activities,activity,workspaces,alternate desktops,activity privacy,virtual desktops,活动,工作区,额外桌面,活动隐私,虚拟桌面",
    "X-KDE-System-Settings-Parent-Category": "desktopbehavior",
    "X-KDE-Weight": 80
}
