{
    "KPlugin": {
        "Description": "Configure File Search",
        "Description[ar]": "اضبط بحث الملفّات",
        "Description[az]": "Fayl axtarışını tənzimləyin",
        "Description[bg]": "Конфигуриране на търсене на файлове",
        "Description[ca@valencia]": "Configura la busca de fitxers",
        "Description[ca]": "Configura la cerca de fitxers",
        "Description[cs]": "Nastavit hledání souborů",
        "Description[da]": "Indstil filsøgning",
        "Description[de]": "Dateisuche einrichten",
        "Description[en_GB]": "Configure File Search",
        "Description[es]": "Configurar la búsqueda de archivos",
        "Description[eu]": "Konfiguratu fitxategien bilaketa",
        "Description[fi]": "Tiedostohaun asetukset",
        "Description[fr]": "Configurer la recherche de fichiers",
        "Description[hu]": "Fájlkeresés beállítása",
        "Description[ia]": "Configura cerca de File",
        "Description[id]": "Konfigurasikan Pencarian File",
        "Description[it]": "Configura ricerca nei file",
        "Description[ja]": "ファイルの検索を設定",
        "Description[ka]": "ფაილის ძებნის მორგება",
        "Description[ko]": "파일 검색 설정 변경",
        "Description[lt]": "Konfigūruoti failų paiešką",
        "Description[nl]": "Bestanden zoeken instellen",
        "Description[nn]": "Set opp filsøk",
        "Description[pa]": "ਫਾਇਲ ਖੋਜ ਦੀ ਸੰਰਚਨਾ",
        "Description[pl]": "Ustawienia wyszukiwania plików",
        "Description[pt]": "Configurar a Pesquisa de Ficheiros",
        "Description[pt_BR]": "Configura a pesquisa de arquivos",
        "Description[ro]": "Configurează căutarea de fișiere",
        "Description[ru]": "Настройка службы поиска файлов",
        "Description[sk]": "Nastavenie hľadania súborov",
        "Description[sl]": "Nastavi iskanje datotek",
        "Description[sv]": "Anpassa filsökning",
        "Description[ta]": "கோப்பு தேடலை அமையுங்கள்",
        "Description[tr]": "Dosya Aramasını Yapılandır",
        "Description[uk]": "Налаштовування пошуку файлів",
        "Description[vi]": "Cấu hình tìm kiếm tệp",
        "Description[x-test]": "xxConfigure File Searchxx",
        "Description[zh_CN]": "配置文件搜索",
        "Description[zh_TW]": "設定檔案搜尋",
        "Icon": "preferences-desktop-baloo",
        "Name": "File Search",
        "Name[ar]": "بحث الملفّات",
        "Name[ast]": "Busca de ficheros",
        "Name[az]": "Fayl axtarışı",
        "Name[bg]": "Търсене на файлове",
        "Name[ca@valencia]": "Busca de fitxers",
        "Name[ca]": "Cerca de fitxers",
        "Name[cs]": "Hledání souboru",
        "Name[da]": "Filsøgning",
        "Name[de]": "Dateisuche",
        "Name[el]": "Αναζήτηση αρχείων",
        "Name[en_GB]": "File Search",
        "Name[es]": "Búsqueda de archivos",
        "Name[et]": "Failiotsing",
        "Name[eu]": "Fitxategien bilaketa",
        "Name[fi]": "Tiedostohaku",
        "Name[fr]": "Recherche de fichier",
        "Name[gl]": "Busca de ficheiros",
        "Name[he]": "חיפוש קבצים",
        "Name[hu]": "Fájlkeresés",
        "Name[ia]": "Cerca de file",
        "Name[id]": "Pencarian File",
        "Name[is]": "Skráaleit",
        "Name[it]": "Ricerca file",
        "Name[ja]": "ファイルの検索",
        "Name[ka]": "ფაილის ძებნა",
        "Name[ko]": "파일 검색",
        "Name[lt]": "Failų paieška",
        "Name[ml]": "ഫയൽ തിരയുക",
        "Name[mr]": "फाईल शोध",
        "Name[nl]": "Bestanden zoeken",
        "Name[nn]": "Filsøk",
        "Name[pa]": "ਫਾਈਲ ਖੋਜ",
        "Name[pl]": "Wyszukiwanie plików",
        "Name[pt]": "Pesquisa de Ficheiros",
        "Name[pt_BR]": "Pesquisa de arquivos",
        "Name[ro]": "Căutare fișiere",
        "Name[ru]": "Поиск файлов",
        "Name[sk]": "Hľadanie súborov",
        "Name[sl]": "Iskanje datotek",
        "Name[sr@ijekavian]": "Претрага фајлова",
        "Name[sr@ijekavianlatin]": "Pretraga fajlova",
        "Name[sr@latin]": "Pretraga fajlova",
        "Name[sr]": "Претрага фајлова",
        "Name[sv]": "Filsökning",
        "Name[ta]": "கோப்பு தேடல்",
        "Name[tg]": "Ҷустуҷӯи файлҳо",
        "Name[tr]": "Dosya Araması",
        "Name[uk]": "Пошук файлів",
        "Name[vi]": "Tìm kiếm tệp",
        "Name[x-test]": "xxFile Searchxx",
        "Name[zh_CN]": "文件搜索",
        "Name[zh_TW]": "檔案搜尋"
    },
    "X-DocPath": "kcontrol/baloo/index.html",
    "X-KDE-Keywords": "search,find,files,archives,documents,filesystem,hidden files,file content,folders,directory,directories,baloo,index,indexing,indexer",
    "X-KDE-Keywords[az]": "search,find,files,archives,documents,filesystem,hidden files,file content,folders,directory,directories,baloo,index,indexing,indexer,axtarış,tapmaq,arxivlər,sənədlər,fayl sistemi,gili fayllar,fayl tərkibi,qovluqlar,kataloq,indeks,indeksləyici, yol",
    "X-KDE-Keywords[ca]": "cerca,fitxers,arxius,documents,sistema de fitxers,fitxers ocults,contingut de fitxers,carpetes,directori,directoris,baloo,índex,indexació,indexador",
    "X-KDE-Keywords[en_GB]": "search,find,files,archives,documents,filesystem,hidden files,file content,folders,directory,directories,baloo,index,indexing,indexer",
    "X-KDE-Keywords[es]": "buscar,encontrar,archivos,archivos comprimidos,documentos,sistema de archivos,archivos ocultos,contenido del archivo,carpetas,directorio,directorios,baloo,índice,indexación,indización,indexador",
    "X-KDE-Keywords[eu]": "aurkitu,bilatu,fitxategiak,artxiboak,dokumentuak,fitxategi-sistema,ezkutuko edukia,karpetak,direktorioa,direktorioak,baloo,indizea,indexatzea,indexatzailea",
    "X-KDE-Keywords[fi]": "etsi,hae,tiedostot,arkistot,asiakirjat,dokumentit,tiedostojärjestelmä,piilotiedostot,tiedoston sisältö,kansio,kansiot,hakemisto,hakemistot,baloo,indeksoi,indeksointi",
    "X-KDE-Keywords[fr]": "rechercher, trouver, fichiers, archives, documents, système de fichiers, fichiers cachés, contenu de fichier, dossiers, répertoire, répertoires, baloo, index, indexation, indexeur",
    "X-KDE-Keywords[hu]": "keresés,keresés,fájlok,archívumok,dokumentumok,fájlrendszer,rejtett fájlok,fájltartalom,mappák,mappa,mappák,baloo,index,indexelés,indexelő",
    "X-KDE-Keywords[ia]": "cerca,trova,files,archivos,documentos,systema de file,files celate,contento de file, dossieres, directorio, directorios,baloo, indice,indicisar,indicisator",
    "X-KDE-Keywords[it]": "ricerca,trova,file,archivi,documenti,filesystem,file nascosti,contenuto file,cartelle,cartella,directory,baloo,indice,indicizzazione,indicizzatore",
    "X-KDE-Keywords[ko]": "search,find,files,archives,documents,filesystem,hidden files,file content,folders,directory,directories,baloo,index,indexing,indexer,검색,찾기,파일,압축 파일,문서,파일 시스템,파일시스템,숨김 파일,파일 내용,폴더,디렉터리,인덱스,색인",
    "X-KDE-Keywords[lt]": "paieška,paieska,ieškoti,ieskoti,rasti,surasti,failai,failus,archyvai,archyvus,dokumentai,dokumentus,paslėpti failai,paslepti failai,paslėptus failus,pasleptus failus,failų turinys,failu turinys,failų turinį,failu turini,aplankai,aplankus,katalogas,katalogą,kataloga,katalogai,katalogus,baloo,indeksas,indeksavimas,indeksatorius,indeksavimo įrankis,indeksavimo irankis",
    "X-KDE-Keywords[nl]": "Zoeken,vinden,bestanden,archieven,documenten,bestandssysteem,verborgen bestanden,bestandsinhoud,mappen,map,mappen,baloo,index,indexering,indexeer programma",
    "X-KDE-Keywords[nn]": "søk,finn,leita,filer,arkiv,dokument,filsystem,gøymde filer,filinnhald,mapper,mappe,mapper,baloo,indeks,indeksering",
    "X-KDE-Keywords[pl]": "szukaj,znajdź,pliki,archiwa,dokumenty,system plików,ukryte pliki,zawartość plików,foldery,katalog,katalogi,baloo,indeks,indeksowanie,indekser",
    "X-KDE-Keywords[pt]": "procurar,pesquisar,encontrar,ficheiros,pacotes,documentos,sistema de ficheiros,ficheiros escondidos,conteúdo do ficheiro,pastas,directoria,pastas,baloo,índice,indexação,indexador",
    "X-KDE-Keywords[pt_BR]": "pesquisar,encontrar,arquivos,documentos,sistema de arquivos,arquivos ocultos,conteúdo do arquivo,pastas,pasta,baloo,índice,indexação,indexador",
    "X-KDE-Keywords[ru]": "search,find,files,archives,documents,filesystem,hidden files,file content,folders,directory,directories,baloo,index,indexing,indexer,поиск,архивы,документы,файловая система,скрытые файлы,содержимое файлов,папки,каталоги,индекс,индексирование",
    "X-KDE-Keywords[sk]": "vyhľadávanie,hľadať,súbory,archívy,dokumenty,súborový systém,skryté súbory,obsah súborov,priečinky,adresár,adresáre,baloo,index,indexovanie,indexer",
    "X-KDE-Keywords[sl]": "išči,najdi,arhivi,dokumenti,datotečni sistem,skrite datoteke,vsebina datoteke,mape,imenik,imeniki,baloo,indeks,indeksiranje,indeksator",
    "X-KDE-Keywords[sv]": "sök,hitta,filer,arkiv,dokument,filsystem,dolda filer,filinnehåll,kataloger,katalog,baloo,index,indexering,indexeringsverktyg",
    "X-KDE-Keywords[tr]": "ara,bul,dosyalar,arşivler,belgeler,dosya sistemi,gizli dosyalar,dosya içeriği,klasörler,dizin,dizinler,baloo,dizin,dizin oluşturma,dizin oluşturucu",
    "X-KDE-Keywords[uk]": "search,find,files,archives,documents,filesystem,hidden files,file content,folders,directory,directories,baloo,index,indexing,indexer,пошук,знайти,файли,архіви,документи,файлова система,приховані файли,вміст файлів,теки,каталог,каталоги,балу,індекс,покажчик,індексування,засіб індексування",
    "X-KDE-Keywords[vi]": "search,find,files,archives,documents,filesystem,hidden files,file content,folders,directory,directories,baloo,index,indexing,indexer,tìm kiếm,tệp,kho trữ,tài liệu,hệ thống tệp,tệp ẩn,nội dung tệp,thư mục,chỉ mục,lập chỉ mục,trình lập chỉ mục",
    "X-KDE-Keywords[x-test]": "xxsearchxx,xxfindxx,xxfilesxx,xxarchivesxx,xxdocumentsxx,xxfilesystemxx,xxhidden filesxx,xxfile contentxx,xxfoldersxx,xxdirectoryxx,xxdirectoriesxx,xxbalooxx,xxindexxx,xxindexingxx,xxindexerxx",
    "X-KDE-Keywords[zh_CN]": "search,find,files,archives,documents,filesystem,hidden files,file content,folders,directory,directories,baloo,index,indexing,indexer,搜索,查询,文件,压缩包,文档,文件系统,隐藏文件,文件内容,文件夹,目录,baloo,索引,索引器,索引工具",
    "X-KDE-System-Settings-Parent-Category": "search",
    "X-KDE-Weight": 10
}
